﻿{
  "$schema": "http://json.schemastore.org/launchsettings.json",
  "profiles": {
    "TestKafkaProducerAndConsumer": {
      "commandName": "Project",
      "environmentVariables": {
        "KafkaServiceIpPort": "192.168.0.159:9091"
      }
    }
  }
}
