{
  "profiles": {
    "TestKafkaConsumerDocker": {
      "commandName": "Project",
      "environmentVariables": {
        "KafkaServiceIpPort": "192.168.0.159:9091",
        "SeqService": "http://localhost:5341"
      }
    },
    "Docker": {
      "commandName": "Docker",
      "environmentVariables": {
        "KafkaServiceIpPort": "192.168.0.159:9091",
        "SeqService": "http://192.168.0.159:5341"
      }
    }
  }
}